…
``` r
    #Forcats
  comicsData %>%
    count(EYE, sort = TRUE)
```

    ## # A tibble: 25 x 2
    ##    EYE             n
    ##    <chr>       <int>
    ##  1 <NA>         9767
    ##  2 Blue Eyes    1962
    ##  3 Brown Eyes   1924
    ##  4 Green Eyes    613
    ##  5 Black Eyes    555
    ##  6 Red Eyes      508
    ##  7 White Eyes    400
    ##  8 Yellow Eyes   256
    ##  9 Grey Eyes      95
    ## 10 Hazel Eyes     76
    ## # … with 15 more rows
…
